RR.fromData: offset=0x0; dn=.; len(dn)=2,               type=288, cls=1, ttl=0, rdlength=1
our reply in full:
0000   26 2C 01 20 00 01 00 00 00 00 00 01 03 77 77 77    &,. .........www
0010   09 6D 69 63 72 6F 73 6F 66 74 03 63 6F 6D 00 00    .microsoft.com..
0020   01 00 01 00 00 29 10 00 00 00 00 00 00 00          .....)........

