RR.fromData: offset=0x23; dn=com.; len(dn)=2,               type=2, cls=1, ttl=172800, rdlength=20
RR.fromData: offset=0x43; dn=com.; len(dn)=2,               type=2, cls=1, ttl=172800, rdlength=4
RR.fromData: offset=0x53; dn=com.; len(dn)=2,               type=2, cls=1, ttl=172800, rdlength=4
RR.fromData: offset=0x63; dn=com.; len(dn)=2,               type=2, cls=1, ttl=172800, rdlength=4
RR.fromData: offset=0x73; dn=com.; len(dn)=2,               type=2, cls=1, ttl=172800, rdlength=4
RR.fromData: offset=0x83; dn=com.; len(dn)=2,               type=2, cls=1, ttl=172800, rdlength=4
RR.fromData: offset=0x93; dn=com.; len(dn)=2,               type=2, cls=1, ttl=172800, rdlength=4
RR.fromData: offset=0xa3; dn=com.; len(dn)=2,               type=2, cls=1, ttl=172800, rdlength=4
RR.fromData: offset=0xb3; dn=com.; len(dn)=2,               type=2, cls=1, ttl=172800, rdlength=4
RR.fromData: offset=0xc3; dn=com.; len(dn)=2,               type=2, cls=1, ttl=172800, rdlength=4
RR.fromData: offset=0xd3; dn=com.; len(dn)=2,               type=2, cls=1, ttl=172800, rdlength=4
RR.fromData: offset=0xe3; dn=com.; len(dn)=2,               type=2, cls=1, ttl=172800, rdlength=4
RR.fromData: offset=0xf3; dn=com.; len(dn)=2,               type=2, cls=1, ttl=172800, rdlength=4
RR.fromData: offset=0x103; dn=l.gtld-servers.net.; len(dn)=2,               type=1, cls=1, ttl=172800, rdlength=4
RR.fromData: offset=0x113; dn=l.gtld-servers.net.; len(dn)=2,               type=28, cls=1, ttl=172800, rdlength=16
RR.fromData: offset=0x12f; dn=b.gtld-servers.net.; len(dn)=2,               type=1, cls=1, ttl=172800, rdlength=4
RR.fromData: offset=0x13f; dn=b.gtld-servers.net.; len(dn)=2,               type=28, cls=1, ttl=172800, rdlength=16
RR.fromData: offset=0x15b; dn=c.gtld-servers.net.; len(dn)=2,               type=1, cls=1, ttl=172800, rdlength=4
RR.fromData: offset=0x16b; dn=c.gtld-servers.net.; len(dn)=2,               type=28, cls=1, ttl=172800, rdlength=16
RR.fromData: offset=0x187; dn=d.gtld-servers.net.; len(dn)=2,               type=1, cls=1, ttl=172800, rdlength=4
RR.fromData: offset=0x197; dn=d.gtld-servers.net.; len(dn)=2,               type=28, cls=1, ttl=172800, rdlength=16
RR.fromData: offset=0x1b3; dn=e.gtld-servers.net.; len(dn)=2,               type=1, cls=1, ttl=172800, rdlength=4
RR.fromData: offset=0x1c3; dn=e.gtld-servers.net.; len(dn)=2,               type=28, cls=1, ttl=172800, rdlength=16
RR.fromData: offset=0x1df; dn=f.gtld-servers.net.; len(dn)=2,               type=1, cls=1, ttl=172800, rdlength=4
RR.fromData: offset=0x23; dn=microsoft.com.; len(dn)=2,               type=2, cls=1, ttl=172800, rdlength=14
RR.fromData: offset=0x3d; dn=microsoft.com.; len(dn)=2,               type=2, cls=1, ttl=172800, rdlength=6
RR.fromData: offset=0x4f; dn=microsoft.com.; len(dn)=2,               type=2, cls=1, ttl=172800, rdlength=6
RR.fromData: offset=0x61; dn=microsoft.com.; len(dn)=2,               type=2, cls=1, ttl=172800, rdlength=6
RR.fromData: offset=0x73; dn=ns3.msft.net.; len(dn)=2,               type=1, cls=1, ttl=172800, rdlength=4
RR.fromData: offset=0x83; dn=ns3.msft.net.; len(dn)=2,               type=28, cls=1, ttl=172800, rdlength=16
RR.fromData: offset=0x9f; dn=ns1.msft.net.; len(dn)=2,               type=1, cls=1, ttl=172800, rdlength=4
RR.fromData: offset=0xaf; dn=ns1.msft.net.; len(dn)=2,               type=28, cls=1, ttl=172800, rdlength=16
RR.fromData: offset=0xcb; dn=ns2.msft.net.; len(dn)=2,               type=1, cls=1, ttl=172800, rdlength=4
RR.fromData: offset=0xdb; dn=ns2.msft.net.; len(dn)=2,               type=28, cls=1, ttl=172800, rdlength=16
RR.fromData: offset=0xf7; dn=ns4.msft.net.; len(dn)=2,               type=1, cls=1, ttl=172800, rdlength=4
RR.fromData: offset=0x107; dn=ns4.msft.net.; len(dn)=2,               type=28, cls=1, ttl=172800, rdlength=16
RR.fromData: offset=0x23; dn=www.microsoft.com.; len(dn)=2,               type=5, cls=1, ttl=3600, rdlength=35
RR.fromData: offset=0x33; dn=net.; len(dn)=2,               type=2, cls=1, ttl=172800, rdlength=17
RR.fromData: offset=0x50; dn=net.; len(dn)=2,               type=2, cls=1, ttl=172800, rdlength=4
RR.fromData: offset=0x60; dn=net.; len(dn)=2,               type=2, cls=1, ttl=172800, rdlength=4
RR.fromData: offset=0x70; dn=net.; len(dn)=2,               type=2, cls=1, ttl=172800, rdlength=4
RR.fromData: offset=0x80; dn=net.; len(dn)=2,               type=2, cls=1, ttl=172800, rdlength=4
RR.fromData: offset=0x90; dn=net.; len(dn)=2,               type=2, cls=1, ttl=172800, rdlength=4
RR.fromData: offset=0xa0; dn=net.; len(dn)=2,               type=2, cls=1, ttl=172800, rdlength=4
RR.fromData: offset=0xb0; dn=net.; len(dn)=2,               type=2, cls=1, ttl=172800, rdlength=4
RR.fromData: offset=0xc0; dn=net.; len(dn)=2,               type=2, cls=1, ttl=172800, rdlength=4
RR.fromData: offset=0xd0; dn=net.; len(dn)=2,               type=2, cls=1, ttl=172800, rdlength=4
RR.fromData: offset=0xe0; dn=net.; len(dn)=2,               type=2, cls=1, ttl=172800, rdlength=4
RR.fromData: offset=0xf0; dn=net.; len(dn)=2,               type=2, cls=1, ttl=172800, rdlength=4
RR.fromData: offset=0x100; dn=net.; len(dn)=2,               type=2, cls=1, ttl=172800, rdlength=4
RR.fromData: offset=0x110; dn=l.gtld-servers.net.; len(dn)=2,               type=1, cls=1, ttl=172800, rdlength=4
RR.fromData: offset=0x120; dn=l.gtld-servers.net.; len(dn)=2,               type=28, cls=1, ttl=172800, rdlength=16
RR.fromData: offset=0x13c; dn=b.gtld-servers.net.; len(dn)=2,               type=1, cls=1, ttl=172800, rdlength=4
RR.fromData: offset=0x14c; dn=b.gtld-servers.net.; len(dn)=2,               type=28, cls=1, ttl=172800, rdlength=16
RR.fromData: offset=0x168; dn=c.gtld-servers.net.; len(dn)=2,               type=1, cls=1, ttl=172800, rdlength=4
RR.fromData: offset=0x178; dn=c.gtld-servers.net.; len(dn)=2,               type=28, cls=1, ttl=172800, rdlength=16
RR.fromData: offset=0x194; dn=d.gtld-servers.net.; len(dn)=2,               type=1, cls=1, ttl=172800, rdlength=4
RR.fromData: offset=0x1a4; dn=d.gtld-servers.net.; len(dn)=2,               type=28, cls=1, ttl=172800, rdlength=16
RR.fromData: offset=0x1c0; dn=e.gtld-servers.net.; len(dn)=2,               type=1, cls=1, ttl=172800, rdlength=4
RR.fromData: offset=0x1d0; dn=e.gtld-servers.net.; len(dn)=2,               type=28, cls=1, ttl=172800, rdlength=16
RR.fromData: offset=0x1ec; dn=f.gtld-servers.net.; len(dn)=2,               type=1, cls=1, ttl=172800, rdlength=4
RR.fromData: offset=0x33; dn=edgekey.net.; len(dn)=2,               type=2, cls=1, ttl=172800, rdlength=14
RR.fromData: offset=0x4d; dn=edgekey.net.; len(dn)=2,               type=2, cls=1, ttl=172800, rdlength=7
RR.fromData: offset=0x60; dn=edgekey.net.; len(dn)=2,               type=2, cls=1, ttl=172800, rdlength=8
RR.fromData: offset=0x74; dn=edgekey.net.; len(dn)=2,               type=2, cls=1, ttl=172800, rdlength=9
RR.fromData: offset=0x89; dn=edgekey.net.; len(dn)=2,               type=2, cls=1, ttl=172800, rdlength=9
RR.fromData: offset=0x9e; dn=edgekey.net.; len(dn)=2,               type=2, cls=1, ttl=172800, rdlength=9
RR.fromData: offset=0xb3; dn=edgekey.net.; len(dn)=2,               type=2, cls=1, ttl=172800, rdlength=8
RR.fromData: offset=0xc7; dn=edgekey.net.; len(dn)=2,               type=2, cls=1, ttl=172800, rdlength=9
RR.fromData: offset=0xdc; dn=edgekey.net.; len(dn)=2,               type=2, cls=1, ttl=172800, rdlength=8
RR.fromData: offset=0xf0; dn=edgekey.net.; len(dn)=2,               type=2, cls=1, ttl=172800, rdlength=9
RR.fromData: offset=0x105; dn=edgekey.net.; len(dn)=2,               type=2, cls=1, ttl=172800, rdlength=9
RR.fromData: offset=0x11a; dn=edgekey.net.; len(dn)=2,               type=2, cls=1, ttl=172800, rdlength=9
RR.fromData: offset=0x12f; dn=edgekey.net.; len(dn)=2,               type=2, cls=1, ttl=172800, rdlength=9
RR.fromData: offset=0x144; dn=ns1-66.akam.net.; len(dn)=2,               type=1, cls=1, ttl=172800, rdlength=4
RR.fromData: offset=0x154; dn=ns1-66.akam.net.; len(dn)=2,               type=28, cls=1, ttl=172800, rdlength=16
RR.fromData: offset=0x170; dn=usw6.akam.net.; len(dn)=2,               type=1, cls=1, ttl=172800, rdlength=4
RR.fromData: offset=0x180; dn=adns1.akam.net.; len(dn)=2,               type=1, cls=1, ttl=172800, rdlength=4
RR.fromData: offset=0x190; dn=ns4-66.akam.net.; len(dn)=2,               type=1, cls=1, ttl=172800, rdlength=4
RR.fromData: offset=0x1a0; dn=ns7-65.akam.net.; len(dn)=2,               type=1, cls=1, ttl=172800, rdlength=4
RR.fromData: offset=0x1b0; dn=ns5-66.akam.net.; len(dn)=2,               type=1, cls=1, ttl=172800, rdlength=4
RR.fromData: offset=0x1c0; dn=a6-65.akam.net.; len(dn)=2,               type=1, cls=1, ttl=172800, rdlength=4
RR.fromData: offset=0x1d0; dn=a6-65.akam.net.; len(dn)=2,               type=28, cls=1, ttl=172800, rdlength=16
RR.fromData: offset=0x1ec; dn=a12-65.akam.net.; len(dn)=2,               type=1, cls=1, ttl=172800, rdlength=4
RR.fromData: offset=0x33; dn=www.microsoft.com-c-2.edgekey.net.; len(dn)=2,               type=5, cls=1, ttl=21600, rdlength=55
RR.fromData: offset=0x4a; dn=akadns.net.; len(dn)=2,               type=2, cls=1, ttl=172800, rdlength=9
RR.fromData: offset=0x5f; dn=akadns.net.; len(dn)=2,               type=2, cls=1, ttl=172800, rdlength=9
RR.fromData: offset=0x74; dn=akadns.net.; len(dn)=2,               type=2, cls=1, ttl=172800, rdlength=10
RR.fromData: offset=0x8a; dn=akadns.net.; len(dn)=2,               type=2, cls=1, ttl=172800, rdlength=9
RR.fromData: offset=0x9f; dn=akadns.net.; len(dn)=2,               type=2, cls=1, ttl=172800, rdlength=9
RR.fromData: offset=0xb4; dn=akadns.net.; len(dn)=2,               type=2, cls=1, ttl=172800, rdlength=19
RR.fromData: offset=0xd3; dn=akadns.net.; len(dn)=2,               type=2, cls=1, ttl=172800, rdlength=10
RR.fromData: offset=0xe9; dn=akadns.net.; len(dn)=2,               type=2, cls=1, ttl=172800, rdlength=10
RR.fromData: offset=0xff; dn=akadns.net.; len(dn)=2,               type=2, cls=1, ttl=172800, rdlength=10
RR.fromData: offset=0x115; dn=akadns.net.; len(dn)=2,               type=2, cls=1, ttl=172800, rdlength=10
RR.fromData: offset=0x12b; dn=a3-129.akadns.net.; len(dn)=2,               type=1, cls=1, ttl=172800, rdlength=4
RR.fromData: offset=0x13b; dn=a7-131.akadns.net.; len(dn)=2,               type=1, cls=1, ttl=172800, rdlength=4
RR.fromData: offset=0x14b; dn=a11-129.akadns.net.; len(dn)=2,               type=1, cls=1, ttl=172800, rdlength=4
RR.fromData: offset=0x15b; dn=a1-128.akadns.net.; len(dn)=2,               type=1, cls=1, ttl=172800, rdlength=4
RR.fromData: offset=0x16b; dn=a9-128.akadns.net.; len(dn)=2,               type=1, cls=1, ttl=172800, rdlength=4
RR.fromData: offset=0x4a; dn=www.microsoft.com-c-2.edgekey.net.globalredir.akadns.net.; len(dn)=2,               type=5, cls=1, ttl=900, rdlength=24
RR.fromData: offset=0x2b; dn=akamaiedge.net.; len(dn)=2,               type=2, cls=1, ttl=172800, rdlength=6
RR.fromData: offset=0x3d; dn=akamaiedge.net.; len(dn)=2,               type=2, cls=1, ttl=172800, rdlength=6
RR.fromData: offset=0x4f; dn=akamaiedge.net.; len(dn)=2,               type=2, cls=1, ttl=172800, rdlength=7
RR.fromData: offset=0x62; dn=akamaiedge.net.; len(dn)=2,               type=2, cls=1, ttl=172800, rdlength=10
RR.fromData: offset=0x78; dn=akamaiedge.net.; len(dn)=2,               type=2, cls=1, ttl=172800, rdlength=10
RR.fromData: offset=0x8e; dn=akamaiedge.net.; len(dn)=2,               type=2, cls=1, ttl=172800, rdlength=10
RR.fromData: offset=0xa4; dn=akamaiedge.net.; len(dn)=2,               type=2, cls=1, ttl=172800, rdlength=10
RR.fromData: offset=0xba; dn=akamaiedge.net.; len(dn)=2,               type=2, cls=1, ttl=172800, rdlength=10
RR.fromData: offset=0xd0; dn=akamaiedge.net.; len(dn)=2,               type=2, cls=1, ttl=172800, rdlength=10
RR.fromData: offset=0xe6; dn=akamaiedge.net.; len(dn)=2,               type=2, cls=1, ttl=172800, rdlength=9
RR.fromData: offset=0xfb; dn=akamaiedge.net.; len(dn)=2,               type=2, cls=1, ttl=172800, rdlength=9
RR.fromData: offset=0x110; dn=akamaiedge.net.; len(dn)=2,               type=2, cls=1, ttl=172800, rdlength=10
RR.fromData: offset=0x126; dn=akamaiedge.net.; len(dn)=2,               type=2, cls=1, ttl=172800, rdlength=10
RR.fromData: offset=0x13c; dn=la1.akamaiedge.net.; len(dn)=2,               type=1, cls=1, ttl=172800, rdlength=4
RR.fromData: offset=0x14c; dn=la3.akamaiedge.net.; len(dn)=2,               type=1, cls=1, ttl=172800, rdlength=4
RR.fromData: offset=0x15c; dn=lar2.akamaiedge.net.; len(dn)=2,               type=1, cls=1, ttl=172800, rdlength=4
RR.fromData: offset=0x16c; dn=ns3-194.akamaiedge.net.; len(dn)=2,               type=1, cls=1, ttl=172800, rdlength=4
RR.fromData: offset=0x17c; dn=ns3-194.akamaiedge.net.; len(dn)=2,               type=28, cls=1, ttl=172800, rdlength=16
RR.fromData: offset=0x198; dn=ns6-194.akamaiedge.net.; len(dn)=2,               type=1, cls=1, ttl=172800, rdlength=4
RR.fromData: offset=0x1a8; dn=ns7-194.akamaiedge.net.; len(dn)=2,               type=1, cls=1, ttl=172800, rdlength=4
RR.fromData: offset=0x1b8; dn=ns5-194.akamaiedge.net.; len(dn)=2,               type=1, cls=1, ttl=172800, rdlength=4
RR.fromData: offset=0x1c8; dn=a12-192.akamaiedge.net.; len(dn)=2,               type=1, cls=1, ttl=172800, rdlength=4
RR.fromData: offset=0x1d8; dn=a28-192.akamaiedge.net.; len(dn)=2,               type=1, cls=1, ttl=172800, rdlength=4
RR.fromData: offset=0x1e8; dn=a6-192.akamaiedge.net.; len(dn)=2,               type=1, cls=1, ttl=172800, rdlength=4
RR.fromData: offset=0x2b; dn=dspb.akamaiedge.net.; len(dn)=2,               type=2, cls=1, ttl=6000, rdlength=9
RR.fromData: offset=0x40; dn=dspb.akamaiedge.net.; len(dn)=2,               type=2, cls=1, ttl=8000, rdlength=9
RR.fromData: offset=0x55; dn=dspb.akamaiedge.net.; len(dn)=2,               type=2, cls=1, ttl=6000, rdlength=9
RR.fromData: offset=0x6a; dn=dspb.akamaiedge.net.; len(dn)=2,               type=2, cls=1, ttl=4000, rdlength=9
RR.fromData: offset=0x7f; dn=dspb.akamaiedge.net.; len(dn)=2,               type=2, cls=1, ttl=8000, rdlength=9
RR.fromData: offset=0x94; dn=dspb.akamaiedge.net.; len(dn)=2,               type=2, cls=1, ttl=4000, rdlength=9
RR.fromData: offset=0xa9; dn=dspb.akamaiedge.net.; len(dn)=2,               type=2, cls=1, ttl=8000, rdlength=9
RR.fromData: offset=0xbe; dn=dspb.akamaiedge.net.; len(dn)=2,               type=2, cls=1, ttl=4000, rdlength=9
RR.fromData: offset=0xd3; dn=dspb.akamaiedge.net.; len(dn)=2,               type=2, cls=1, ttl=6000, rdlength=9
RR.fromData: offset=0xe8; dn=n0dspb.akamaiedge.net.; len(dn)=2,               type=1, cls=1, ttl=4000, rdlength=4
RR.fromData: offset=0xf8; dn=a0dspb.akamaiedge.net.; len(dn)=2,               type=28, cls=1, ttl=6000, rdlength=16
RR.fromData: offset=0x114; dn=n3dspb.akamaiedge.net.; len(dn)=2,               type=1, cls=1, ttl=6000, rdlength=4
RR.fromData: offset=0x124; dn=n2dspb.akamaiedge.net.; len(dn)=2,               type=1, cls=1, ttl=4000, rdlength=4
RR.fromData: offset=0x134; dn=n6dspb.akamaiedge.net.; len(dn)=2,               type=1, cls=1, ttl=6000, rdlength=4
RR.fromData: offset=0x144; dn=n4dspb.akamaiedge.net.; len(dn)=2,               type=1, cls=1, ttl=8000, rdlength=4
RR.fromData: offset=0x154; dn=n7dspb.akamaiedge.net.; len(dn)=2,               type=1, cls=1, ttl=8000, rdlength=4
RR.fromData: offset=0x164; dn=n1dspb.akamaiedge.net.; len(dn)=2,               type=1, cls=1, ttl=8000, rdlength=4
RR.fromData: offset=0x174; dn=n5dspb.akamaiedge.net.; len(dn)=2,               type=1, cls=1, ttl=4000, rdlength=4
RR.fromData: offset=0x2b; dn=e1863.dspb.akamaiedge.net.; len(dn)=2,               type=1, cls=1, ttl=20, rdlength=4
RR.fromData: offset=0x27; dn=akamaiedge.net.; len(dn)=2,               type=6, cls=1, ttl=90000, rdlength=54
RR.fromData: offset=0x27; dn=akamaiedge.net.; len(dn)=2,               type=6, cls=1, ttl=90000, rdlength=54
RR.fromData: offset=0x27; dn=akamaiedge.net.; len(dn)=2,               type=6, cls=1, ttl=90000, rdlength=54
RR.fromData: offset=0x27; dn=akamaiedge.net.; len(dn)=2,               type=6, cls=1, ttl=90000, rdlength=54
RR.fromData: offset=0x27; dn=akamaiedge.net.; len(dn)=2,               type=6, cls=1, ttl=90000, rdlength=54
RR.fromData: offset=0x27; dn=akamaiedge.net.; len(dn)=2,               type=6, cls=1, ttl=90000, rdlength=54
RR.fromData: offset=0x27; dn=akamaiedge.net.; len(dn)=2,               type=6, cls=1, ttl=90000, rdlength=54
RR.fromData: offset=0x27; dn=akamaiedge.net.; len(dn)=2,               type=6, cls=1, ttl=90000, rdlength=54
RR.fromData: offset=0x27; dn=akamaiedge.net.; len(dn)=2,               type=6, cls=1, ttl=90000, rdlength=54
RR.fromData: offset=0x27; dn=akamaiedge.net.; len(dn)=2,               type=6, cls=1, ttl=90000, rdlength=54
RR.fromData: offset=0x27; dn=akamaiedge.net.; len(dn)=2,               type=2, cls=1, ttl=172800, rdlength=6
RR.fromData: offset=0x39; dn=akamaiedge.net.; len(dn)=2,               type=2, cls=1, ttl=172800, rdlength=6
RR.fromData: offset=0x4b; dn=akamaiedge.net.; len(dn)=2,               type=2, cls=1, ttl=172800, rdlength=7
RR.fromData: offset=0x5e; dn=akamaiedge.net.; len(dn)=2,               type=2, cls=1, ttl=172800, rdlength=10
RR.fromData: offset=0x74; dn=akamaiedge.net.; len(dn)=2,               type=2, cls=1, ttl=172800, rdlength=10
RR.fromData: offset=0x8a; dn=akamaiedge.net.; len(dn)=2,               type=2, cls=1, ttl=172800, rdlength=10
RR.fromData: offset=0xa0; dn=akamaiedge.net.; len(dn)=2,               type=2, cls=1, ttl=172800, rdlength=10
RR.fromData: offset=0xb6; dn=akamaiedge.net.; len(dn)=2,               type=2, cls=1, ttl=172800, rdlength=10
RR.fromData: offset=0xcc; dn=akamaiedge.net.; len(dn)=2,               type=2, cls=1, ttl=172800, rdlength=10
RR.fromData: offset=0xe2; dn=akamaiedge.net.; len(dn)=2,               type=2, cls=1, ttl=172800, rdlength=9
RR.fromData: offset=0xf7; dn=akamaiedge.net.; len(dn)=2,               type=2, cls=1, ttl=172800, rdlength=9
RR.fromData: offset=0x10c; dn=akamaiedge.net.; len(dn)=2,               type=2, cls=1, ttl=172800, rdlength=10
RR.fromData: offset=0x122; dn=akamaiedge.net.; len(dn)=2,               type=2, cls=1, ttl=172800, rdlength=10
RR.fromData: offset=0x138; dn=la1.akamaiedge.net.; len(dn)=2,               type=1, cls=1, ttl=172800, rdlength=4
RR.fromData: offset=0x148; dn=la3.akamaiedge.net.; len(dn)=2,               type=1, cls=1, ttl=172800, rdlength=4
RR.fromData: offset=0x158; dn=lar2.akamaiedge.net.; len(dn)=2,               type=1, cls=1, ttl=172800, rdlength=4
RR.fromData: offset=0x168; dn=ns3-194.akamaiedge.net.; len(dn)=2,               type=1, cls=1, ttl=172800, rdlength=4
RR.fromData: offset=0x178; dn=ns3-194.akamaiedge.net.; len(dn)=2,               type=28, cls=1, ttl=172800, rdlength=16
RR.fromData: offset=0x194; dn=ns6-194.akamaiedge.net.; len(dn)=2,               type=1, cls=1, ttl=172800, rdlength=4
RR.fromData: offset=0x1a4; dn=ns7-194.akamaiedge.net.; len(dn)=2,               type=1, cls=1, ttl=172800, rdlength=4
RR.fromData: offset=0x1b4; dn=ns5-194.akamaiedge.net.; len(dn)=2,               type=1, cls=1, ttl=172800, rdlength=4
RR.fromData: offset=0x1c4; dn=a12-192.akamaiedge.net.; len(dn)=2,               type=1, cls=1, ttl=172800, rdlength=4
RR.fromData: offset=0x1d4; dn=a28-192.akamaiedge.net.; len(dn)=2,               type=1, cls=1, ttl=172800, rdlength=4
RR.fromData: offset=0x1e4; dn=a6-192.akamaiedge.net.; len(dn)=2,               type=1, cls=1, ttl=172800, rdlength=4
RR.fromData: offset=0x27; dn=akamaiedge.net.; len(dn)=2,               type=6, cls=1, ttl=90000, rdlength=54
RR.fromData: offset=0x27; dn=akamaiedge.net.; len(dn)=2,               type=6, cls=1, ttl=90000, rdlength=54
RR.fromData: offset=0x27; dn=akamaiedge.net.; len(dn)=2,               type=6, cls=1, ttl=90000, rdlength=54
RR.fromData: offset=0x27; dn=akamaiedge.net.; len(dn)=2,               type=6, cls=1, ttl=90000, rdlength=54
RR.fromData: offset=0x27; dn=akamaiedge.net.; len(dn)=2,               type=6, cls=1, ttl=90000, rdlength=54
RR.fromData: offset=0x27; dn=akamaiedge.net.; len(dn)=2,               type=6, cls=1, ttl=90000, rdlength=54
RR.fromData: offset=0x27; dn=akamaiedge.net.; len(dn)=2,               type=6, cls=1, ttl=90000, rdlength=54
RR.fromData: offset=0x27; dn=akamaiedge.net.; len(dn)=2,               type=6, cls=1, ttl=90000, rdlength=54
RR.fromData: offset=0x27; dn=akamaiedge.net.; len(dn)=2,               type=6, cls=1, ttl=90000, rdlength=54
RR.fromData: offset=0x27; dn=akamaiedge.net.; len(dn)=2,               type=6, cls=1, ttl=90000, rdlength=54
RR.fromData: offset=0x27; dn=akamaiedge.net.; len(dn)=2,               type=6, cls=1, ttl=90000, rdlength=54
RR.fromData: offset=0x27; dn=akamaiedge.net.; len(dn)=2,               type=6, cls=1, ttl=90000, rdlength=54
RR.fromData: offset=0x27; dn=akamaiedge.net.; len(dn)=2,               type=6, cls=1, ttl=90000, rdlength=54
RR.fromData: offset=0x27; dn=akamaiedge.net.; len(dn)=2,               type=6, cls=1, ttl=90000, rdlength=54
RR.fromData: offset=0x27; dn=akamaiedge.net.; len(dn)=2,               type=6, cls=1, ttl=90000, rdlength=54
our reply in full:
0000   7B 33 81 80 00 01 00 04 00 09 00 08 03 77 77 77    {3...........www
0010   09 6D 69 63 72 6F 73 6F 66 74 03 63 6F 6D 00 00    .microsoft.com..
0020   01 00 01 03 77 77 77 09 6D 69 63 72 6F 73 6F 66    ....www.microsof
0030   74 03 63 6F 6D 00 00 05 00 01 00 00 0E 10 00 23    t.com..........#
0040   03 77 77 77 09 6D 69 63 72 6F 73 6F 66 74 07 63    .www.microsoft.c
0050   6F 6D 2D 63 2D 32 07 65 64 67 65 6B 65 79 03 6E    om-c-2.edgekey.n
0060   65 74 00 03 77 77 77 09 6D 69 63 72 6F 73 6F 66    et..www.microsof
0070   74 07 63 6F 6D 2D 63 2D 32 07 65 64 67 65 6B 65    t.com-c-2.edgeke
0080   79 03 6E 65 74 00 00 05 00 01 00 00 54 60 00 3A    y.net.......T`.:
0090   03 77 77 77 09 6D 69 63 72 6F 73 6F 66 74 07 63    .www.microsoft.c
00A0   6F 6D 2D 63 2D 32 07 65 64 67 65 6B 65 79 03 6E    om-c-2.edgekey.n
00B0   65 74 0B 67 6C 6F 62 61 6C 72 65 64 69 72 06 61    et.globalredir.a
00C0   6B 61 64 6E 73 03 6E 65 74 00 03 77 77 77 09 6D    kadns.net..www.m
00D0   69 63 72 6F 73 6F 66 74 07 63 6F 6D 2D 63 2D 32    icrosoft.com-c-2
00E0   07 65 64 67 65 6B 65 79 03 6E 65 74 0B 67 6C 6F    .edgekey.net.glo
00F0   62 61 6C 72 65 64 69 72 06 61 6B 61 64 6E 73 03    balredir.akadns.
0100   6E 65 74 00 00 05 00 01 00 00 03 84 00 1B 05 65    net............e
0110   31 38 36 33 04 64 73 70 62 0A 61 6B 61 6D 61 69    1863.dspb.akamai
0120   65 64 67 65 03 6E 65 74 00 05 65 31 38 36 33 04    edge.net..e1863.
0130   64 73 70 62 0A 61 6B 61 6D 61 69 65 64 67 65 03    dspb.akamaiedge.
0140   6E 65 74 00 00 01 00 01 00 00 00 14 00 04 17 D4    net.............
0150   E8 5C 04 64 73 70 62 0A 61 6B 61 6D 61 69 65 64    ...dspb.akamaied
0160   67 65 03 6E 65 74 00 00 02 00 01 00 00 17 70 00    ge.net........p.
0170   17 06 61 30 64 73 70 62 0A 61 6B 61 6D 61 69 65    ..a0dspb.akamaie
0180   64 67 65 03 6E 65 74 00 04 64 73 70 62 0A 61 6B    dge.net..dspb.ak
0190   61 6D 61 69 65 64 67 65 03 6E 65 74 00 00 02 00    amaiedge.net....
01A0   01 00 00 1F 40 00 17 06 6E 34 64 73 70 62 0A 61    ....@...n4dspb.a
01B0   6B 61 6D 61 69 65 64 67 65 03 6E 65 74 00 04 64    kamaiedge.net..d
01C0   73 70 62 0A 61 6B 61 6D 61 69 65 64 67 65 03 6E    spb.akamaiedge.n
01D0   65 74 00 00 02 00 01 00 00 17 70 00 17 06 6E 33    et........p...n3
01E0   64 73 70 62 0A 61 6B 61 6D 61 69 65 64 67 65 03    dspb.akamaiedge.
01F0   6E 65 74 00 04 64 73 70 62 0A 61 6B 61 6D 61 69    net..dspb.akamai
0200   65 64 67 65 03 6E 65 74 00 00 02 00 01 00 00 0F    edge.net........
0210   A0 00 17 06 6E 35 64 73 70 62 0A 61 6B 61 6D 61    ....n5dspb.akama
0220   69 65 64 67 65 03 6E 65 74 00 04 64 73 70 62 0A    iedge.net..dspb.
0230   61 6B 61 6D 61 69 65 64 67 65 03 6E 65 74 00 00    akamaiedge.net..
0240   02 00 01 00 00 1F 40 00 17 06 6E 31 64 73 70 62    ......@...n1dspb
0250   0A 61 6B 61 6D 61 69 65 64 67 65 03 6E 65 74 00    .akamaiedge.net.
0260   04 64 73 70 62 0A 61 6B 61 6D 61 69 65 64 67 65    .dspb.akamaiedge
0270   03 6E 65 74 00 00 02 00 01 00 00 0F A0 00 17 06    .net............
0280   6E 32 64 73 70 62 0A 61 6B 61 6D 61 69 65 64 67    n2dspb.akamaiedg
0290   65 03 6E 65 74 00 04 64 73 70 62 0A 61 6B 61 6D    e.net..dspb.akam
02A0   61 69 65 64 67 65 03 6E 65 74 00 00 02 00 01 00    aiedge.net......
02B0   00 1F 40 00 17 06 6E 37 64 73 70 62 0A 61 6B 61    ..@...n7dspb.aka
02C0   6D 61 69 65 64 67 65 03 6E 65 74 00 04 64 73 70    maiedge.net..dsp
02D0   62 0A 61 6B 61 6D 61 69 65 64 67 65 03 6E 65 74    b.akamaiedge.net
02E0   00 00 02 00 01 00 00 0F A0 00 17 06 6E 30 64 73    ............n0ds
02F0   70 62 0A 61 6B 61 6D 61 69 65 64 67 65 03 6E 65    pb.akamaiedge.ne
0300   74 00 04 64 73 70 62 0A 61 6B 61 6D 61 69 65 64    t..dspb.akamaied
0310   67 65 03 6E 65 74 00 00 02 00 01 00 00 17 70 00    ge.net........p.
0320   17 06 6E 36 64 73 70 62 0A 61 6B 61 6D 61 69 65    ..n6dspb.akamaie
0330   64 67 65 03 6E 65 74 00 06 6E 34 64 73 70 62 0A    dge.net..n4dspb.
0340   61 6B 61 6D 61 69 65 64 67 65 03 6E 65 74 00 00    akamaiedge.net..
0350   01 00 01 00 00 1F 40 00 04 17 D1 49 5F 06 6E 33    ......@....I_.n3
0360   64 73 70 62 0A 61 6B 61 6D 61 69 65 64 67 65 03    dspb.akamaiedge.
0370   6E 65 74 00 00 01 00 01 00 00 17 70 00 04 17 D1    net........p....
0380   49 5E 06 6E 35 64 73 70 62 0A 61 6B 61 6D 61 69    I^.n5dspb.akamai
0390   65 64 67 65 03 6E 65 74 00 00 01 00 01 00 00 0F    edge.net........
03A0   A0 00 04 17 D1 49 7F 06 6E 31 64 73 70 62 0A 61    .....I..n1dspb.a
03B0   6B 61 6D 61 69 65 64 67 65 03 6E 65 74 00 00 01    kamaiedge.net...
03C0   00 01 00 00 1F 40 00 04 17 D1 49 5C 06 6E 32 64    .....@....I..n2d
03D0   73 70 62 0A 61 6B 61 6D 61 69 65 64 67 65 03 6E    spb.akamaiedge.n
03E0   65 74 00 00 01 00 01 00 00 0F A0 00 04 17 D1 49    et.............I
03F0   5D 06 6E 37 64 73 70 62 0A 61 6B 61 6D 61 69 65    ].n7dspb.akamaie
0400   64 67 65 03 6E 65 74 00 00 01 00 01 00 00 1F 40    dge.net........@
0410   00 04 C3 0A 08 F7 06 6E 30 64 73 70 62 0A 61 6B    .......n0dspb.ak
0420   61 6D 61 69 65 64 67 65 03 6E 65 74 00 00 01 00    amaiedge.net....
0430   01 00 00 0F A0 00 04 58 DD 51 C0 06 6E 36 64 73    .......X.Q..n6ds
0440   70 62 0A 61 6B 61 6D 61 69 65 64 67 65 03 6E 65    pb.akamaiedge.ne
0450   74 00 00 01 00 01 00 00 17 70 00 04 2E 21 4D 04    t........p...!M.

RR.fromData: offset=0x1f; dn=baidu.com.; len(dn)=2,               type=2, cls=1, ttl=172800, rdlength=6
RR.fromData: offset=0x31; dn=baidu.com.; len(dn)=2,               type=2, cls=1, ttl=172800, rdlength=6
RR.fromData: offset=0x43; dn=baidu.com.; len(dn)=2,               type=2, cls=1, ttl=172800, rdlength=6
RR.fromData: offset=0x55; dn=baidu.com.; len(dn)=2,               type=2, cls=1, ttl=172800, rdlength=6
RR.fromData: offset=0x67; dn=baidu.com.; len(dn)=2,               type=2, cls=1, ttl=172800, rdlength=6
RR.fromData: offset=0x79; dn=dns.baidu.com.; len(dn)=2,               type=1, cls=1, ttl=172800, rdlength=4
RR.fromData: offset=0x89; dn=ns2.baidu.com.; len(dn)=2,               type=1, cls=1, ttl=172800, rdlength=4
RR.fromData: offset=0x99; dn=ns3.baidu.com.; len(dn)=2,               type=1, cls=1, ttl=172800, rdlength=4
RR.fromData: offset=0xa9; dn=ns4.baidu.com.; len(dn)=2,               type=1, cls=1, ttl=172800, rdlength=4
RR.fromData: offset=0xb9; dn=ns7.baidu.com.; len(dn)=2,               type=1, cls=1, ttl=172800, rdlength=4
RR.fromData: offset=0x1f; dn=www.baidu.com.; len(dn)=2,               type=5, cls=1, ttl=1200, rdlength=15
RR.fromData: offset=0x3a; dn=a.shifen.com.; len(dn)=2,               type=2, cls=1, ttl=1200, rdlength=6
RR.fromData: offset=0x4c; dn=a.shifen.com.; len(dn)=2,               type=2, cls=1, ttl=1200, rdlength=6
RR.fromData: offset=0x5e; dn=a.shifen.com.; len(dn)=2,               type=2, cls=1, ttl=1200, rdlength=6
RR.fromData: offset=0x70; dn=a.shifen.com.; len(dn)=2,               type=2, cls=1, ttl=1200, rdlength=6
RR.fromData: offset=0x82; dn=a.shifen.com.; len(dn)=2,               type=2, cls=1, ttl=1200, rdlength=6
RR.fromData: offset=0x94; dn=ns1.a.shifen.com.; len(dn)=2,               type=1, cls=1, ttl=1200, rdlength=4
RR.fromData: offset=0xa4; dn=ns2.a.shifen.com.; len(dn)=2,               type=1, cls=1, ttl=1200, rdlength=4
RR.fromData: offset=0xb4; dn=ns3.a.shifen.com.; len(dn)=2,               type=1, cls=1, ttl=1200, rdlength=4
RR.fromData: offset=0xc4; dn=ns4.a.shifen.com.; len(dn)=2,               type=1, cls=1, ttl=1200, rdlength=4
RR.fromData: offset=0xd4; dn=ns5.a.shifen.com.; len(dn)=2,               type=1, cls=1, ttl=1200, rdlength=4
RR.fromData: offset=0x22; dn=www.a.shifen.com.; len(dn)=2,               type=5, cls=1, ttl=120, rdlength=14
RR.fromData: offset=0x21; dn=wshifen.com.; len(dn)=2,               type=2, cls=1, ttl=172800, rdlength=6
RR.fromData: offset=0x33; dn=wshifen.com.; len(dn)=2,               type=2, cls=1, ttl=172800, rdlength=6
RR.fromData: offset=0x45; dn=ns3.wshifen.com.; len(dn)=2,               type=1, cls=1, ttl=172800, rdlength=4
RR.fromData: offset=0x55; dn=ns4.wshifen.com.; len(dn)=2,               type=1, cls=1, ttl=172800, rdlength=4
RR.fromData: offset=0x21; dn=www.wshifen.com.; len(dn)=2,               type=1, cls=1, ttl=300, rdlength=4
RR.fromData: offset=0x31; dn=wshifen.com.; len(dn)=2,               type=2, cls=1, ttl=1200, rdlength=6
RR.fromData: offset=0x43; dn=wshifen.com.; len(dn)=2,               type=2, cls=1, ttl=1200, rdlength=6
RR.fromData: offset=0x55; dn=ns3.wshifen.com.; len(dn)=2,               type=1, cls=1, ttl=1200, rdlength=4
RR.fromData: offset=0x65; dn=ns4.wshifen.com.; len(dn)=2,               type=1, cls=1, ttl=1200, rdlength=4
our reply in full:
0000   87 59 81 80 00 01 00 03 00 02 00 02 03 77 77 77    .Y...........www
0010   05 62 61 69 64 75 03 63 6F 6D 00 00 01 00 01 03    .baidu.com......
0020   77 77 77 05 62 61 69 64 75 03 63 6F 6D 00 00 05    www.baidu.com...
0030   00 01 00 00 04 B0 00 12 03 77 77 77 01 61 06 73    .........www.a.s
0040   68 69 66 65 6E 03 63 6F 6D 00 03 77 77 77 01 61    hifen.com..www.a
0050   06 73 68 69 66 65 6E 03 63 6F 6D 00 00 05 00 01    .shifen.com.....
0060   00 00 00 78 00 11 03 77 77 77 07 77 73 68 69 66    ...x...www.wshif
0070   65 6E 03 63 6F 6D 00 03 77 77 77 07 77 73 68 69    en.com..www.wshi
0080   66 65 6E 03 63 6F 6D 00 00 01 00 01 00 00 01 2C    fen.com........,
0090   00 04 67 EB 2E 27 07 77 73 68 69 66 65 6E 03 63    ..g..'.wshifen.c
00A0   6F 6D 00 00 02 00 01 00 00 04 B0 00 11 03 6E 73    om............ns
00B0   33 07 77 73 68 69 66 65 6E 03 63 6F 6D 00 07 77    3.wshifen.com..w
00C0   73 68 69 66 65 6E 03 63 6F 6D 00 00 02 00 01 00    shifen.com......
00D0   00 04 B0 00 11 03 6E 73 34 07 77 73 68 69 66 65    ......ns4.wshife
00E0   6E 03 63 6F 6D 00 03 6E 73 33 07 77 73 68 69 66    n.com..ns3.wshif
00F0   65 6E 03 63 6F 6D 00 00 01 00 01 00 00 04 B0 00    en.com..........
0100   04 B4 4C 08 FA 03 6E 73 34 07 77 73 68 69 66 65    ..L...ns4.wshife
0110   6E 03 63 6F 6D 00 00 01 00 01 00 00 04 B0 00 04    n.com...........
0120   B4 4C 09 FA                                        .L..

RR.fromData: offset=0x1e; dn=org.; len(dn)=2,               type=2, cls=1, ttl=172800, rdlength=25
RR.fromData: offset=0x43; dn=org.; len(dn)=2,               type=2, cls=1, ttl=172800, rdlength=5
RR.fromData: offset=0x54; dn=org.; len(dn)=2,               type=2, cls=1, ttl=172800, rdlength=21
RR.fromData: offset=0x75; dn=org.; len(dn)=2,               type=2, cls=1, ttl=172800, rdlength=5
RR.fromData: offset=0x86; dn=org.; len(dn)=2,               type=2, cls=1, ttl=172800, rdlength=5
RR.fromData: offset=0x97; dn=org.; len(dn)=2,               type=2, cls=1, ttl=172800, rdlength=5
RR.fromData: offset=0xa8; dn=a0.org.afilias-nst.info.; len(dn)=2,               type=1, cls=1, ttl=172800, rdlength=4
RR.fromData: offset=0xb8; dn=a0.org.afilias-nst.info.; len(dn)=2,               type=28, cls=1, ttl=172800, rdlength=16
RR.fromData: offset=0xd4; dn=a2.org.afilias-nst.info.; len(dn)=2,               type=1, cls=1, ttl=172800, rdlength=4
RR.fromData: offset=0xe4; dn=a2.org.afilias-nst.info.; len(dn)=2,               type=28, cls=1, ttl=172800, rdlength=16
RR.fromData: offset=0x100; dn=b0.org.afilias-nst.org.; len(dn)=2,               type=1, cls=1, ttl=172800, rdlength=4
RR.fromData: offset=0x110; dn=b0.org.afilias-nst.org.; len(dn)=2,               type=28, cls=1, ttl=172800, rdlength=16
RR.fromData: offset=0x12c; dn=b2.org.afilias-nst.org.; len(dn)=2,               type=1, cls=1, ttl=172800, rdlength=4
RR.fromData: offset=0x13c; dn=b2.org.afilias-nst.org.; len(dn)=2,               type=28, cls=1, ttl=172800, rdlength=16
RR.fromData: offset=0x158; dn=c0.org.afilias-nst.info.; len(dn)=2,               type=1, cls=1, ttl=172800, rdlength=4
RR.fromData: offset=0x168; dn=c0.org.afilias-nst.info.; len(dn)=2,               type=28, cls=1, ttl=172800, rdlength=16
RR.fromData: offset=0x184; dn=d0.org.afilias-nst.org.; len(dn)=2,               type=1, cls=1, ttl=172800, rdlength=4
RR.fromData: offset=0x194; dn=d0.org.afilias-nst.org.; len(dn)=2,               type=28, cls=1, ttl=172800, rdlength=16
RR.fromData: offset=0x1e; dn=xorp.org.; len(dn)=2,               type=2, cls=1, ttl=86400, rdlength=6
RR.fromData: offset=0x30; dn=xorp.org.; len(dn)=2,               type=2, cls=1, ttl=86400, rdlength=5
RR.fromData: offset=0x41; dn=ns.xorp.org.; len(dn)=2,               type=1, cls=1, ttl=86400, rdlength=4
RR.fromData: offset=0x51; dn=ns2.xorp.org.; len(dn)=2,               type=1, cls=1, ttl=86400, rdlength=4
RR.fromData: offset=0x1e; dn=www.xorp.org.; len(dn)=2,               type=1, cls=1, ttl=3600, rdlength=4
RR.fromData: offset=0x2e; dn=xorp.org.; len(dn)=2,               type=2, cls=1, ttl=3600, rdlength=5
RR.fromData: offset=0x3f; dn=xorp.org.; len(dn)=2,               type=2, cls=1, ttl=3600, rdlength=6
RR.fromData: offset=0x51; dn=ns.xorp.org.; len(dn)=2,               type=1, cls=1, ttl=3600, rdlength=4
RR.fromData: offset=0x61; dn=ns2.xorp.org.; len(dn)=2,               type=1, cls=1, ttl=3600, rdlength=4
our reply in full:
0000   30 8F 81 80 00 01 00 01 00 02 00 02 03 77 77 77    0............www
0010   04 78 6F 72 70 03 6F 72 67 00 00 01 00 01 03 77    .xorp.org......w
0020   77 77 04 78 6F 72 70 03 6F 72 67 00 00 01 00 01    ww.xorp.org.....
0030   00 00 0E 10 00 04 D0 4A 9E AB 04 78 6F 72 70 03    .......J...xorp.
0040   6F 72 67 00 00 02 00 01 00 00 0E 10 00 0E 03 6E    org............n
0050   73 32 04 78 6F 72 70 03 6F 72 67 00 04 78 6F 72    s2.xorp.org..xor
0060   70 03 6F 72 67 00 00 02 00 01 00 00 0E 10 00 0D    p.org...........
0070   02 6E 73 04 78 6F 72 70 03 6F 72 67 00 03 6E 73    .ns.xorp.org..ns
0080   32 04 78 6F 72 70 03 6F 72 67 00 00 01 00 01 00    2.xorp.org......
0090   00 0E 10 00 04 C1 3F 3A 91 02 6E 73 04 78 6F 72    ......?:..ns.xor
00A0   70 03 6F 72 67 00 00 01 00 01 00 00 0E 10 00 04    p.org...........
00B0   80 10 46 FE                                        ..F.

RR.fromData: offset=0x27; dn=akamaiedge.net.; len(dn)=2,               type=6, cls=1, ttl=90000, rdlength=54
RR.fromData: offset=0x27; dn=akamaiedge.net.; len(dn)=2,               type=6, cls=1, ttl=90000, rdlength=54
RR.fromData: offset=0x27; dn=akamaiedge.net.; len(dn)=2,               type=6, cls=1, ttl=90000, rdlength=54
RR.fromData: offset=0x27; dn=akamaiedge.net.; len(dn)=2,               type=6, cls=1, ttl=90000, rdlength=54
RR.fromData: offset=0x27; dn=akamaiedge.net.; len(dn)=2,               type=6, cls=1, ttl=90000, rdlength=54
RR.fromData: offset=0x27; dn=akamaiedge.net.; len(dn)=2,               type=6, cls=1, ttl=90000, rdlength=54
RR.fromData: offset=0x27; dn=akamaiedge.net.; len(dn)=2,               type=6, cls=1, ttl=90000, rdlength=54
RR.fromData: offset=0x27; dn=akamaiedge.net.; len(dn)=2,               type=6, cls=1, ttl=90000, rdlength=54
RR.fromData: offset=0x27; dn=akamaiedge.net.; len(dn)=2,               type=6, cls=1, ttl=90000, rdlength=54
RR.fromData: offset=0x27; dn=akamaiedge.net.; len(dn)=2,               type=6, cls=1, ttl=90000, rdlength=54
RR.fromData: offset=0x27; dn=akamaiedge.net.; len(dn)=2,               type=2, cls=1, ttl=172800, rdlength=6
RR.fromData: offset=0x39; dn=akamaiedge.net.; len(dn)=2,               type=2, cls=1, ttl=172800, rdlength=6
RR.fromData: offset=0x4b; dn=akamaiedge.net.; len(dn)=2,               type=2, cls=1, ttl=172800, rdlength=7
RR.fromData: offset=0x5e; dn=akamaiedge.net.; len(dn)=2,               type=2, cls=1, ttl=172800, rdlength=10
RR.fromData: offset=0x74; dn=akamaiedge.net.; len(dn)=2,               type=2, cls=1, ttl=172800, rdlength=10
RR.fromData: offset=0x8a; dn=akamaiedge.net.; len(dn)=2,               type=2, cls=1, ttl=172800, rdlength=10
RR.fromData: offset=0xa0; dn=akamaiedge.net.; len(dn)=2,               type=2, cls=1, ttl=172800, rdlength=10
RR.fromData: offset=0xb6; dn=akamaiedge.net.; len(dn)=2,               type=2, cls=1, ttl=172800, rdlength=10
RR.fromData: offset=0xcc; dn=akamaiedge.net.; len(dn)=2,               type=2, cls=1, ttl=172800, rdlength=10
RR.fromData: offset=0xe2; dn=akamaiedge.net.; len(dn)=2,               type=2, cls=1, ttl=172800, rdlength=9
RR.fromData: offset=0xf7; dn=akamaiedge.net.; len(dn)=2,               type=2, cls=1, ttl=172800, rdlength=9
RR.fromData: offset=0x10c; dn=akamaiedge.net.; len(dn)=2,               type=2, cls=1, ttl=172800, rdlength=10
RR.fromData: offset=0x122; dn=akamaiedge.net.; len(dn)=2,               type=2, cls=1, ttl=172800, rdlength=10
RR.fromData: offset=0x138; dn=la1.akamaiedge.net.; len(dn)=2,               type=1, cls=1, ttl=172800, rdlength=4
RR.fromData: offset=0x148; dn=la3.akamaiedge.net.; len(dn)=2,               type=1, cls=1, ttl=172800, rdlength=4
RR.fromData: offset=0x158; dn=lar2.akamaiedge.net.; len(dn)=2,               type=1, cls=1, ttl=172800, rdlength=4
RR.fromData: offset=0x168; dn=ns3-194.akamaiedge.net.; len(dn)=2,               type=1, cls=1, ttl=172800, rdlength=4
RR.fromData: offset=0x178; dn=ns3-194.akamaiedge.net.; len(dn)=2,               type=28, cls=1, ttl=172800, rdlength=16
RR.fromData: offset=0x194; dn=ns6-194.akamaiedge.net.; len(dn)=2,               type=1, cls=1, ttl=172800, rdlength=4
RR.fromData: offset=0x1a4; dn=ns7-194.akamaiedge.net.; len(dn)=2,               type=1, cls=1, ttl=172800, rdlength=4
RR.fromData: offset=0x1b4; dn=ns5-194.akamaiedge.net.; len(dn)=2,               type=1, cls=1, ttl=172800, rdlength=4
RR.fromData: offset=0x1c4; dn=a12-192.akamaiedge.net.; len(dn)=2,               type=1, cls=1, ttl=172800, rdlength=4
RR.fromData: offset=0x1d4; dn=a28-192.akamaiedge.net.; len(dn)=2,               type=1, cls=1, ttl=172800, rdlength=4
RR.fromData: offset=0x1e4; dn=a6-192.akamaiedge.net.; len(dn)=2,               type=1, cls=1, ttl=172800, rdlength=4
RR.fromData: offset=0x27; dn=akamaiedge.net.; len(dn)=2,               type=6, cls=1, ttl=90000, rdlength=54
RR.fromData: offset=0x27; dn=akamaiedge.net.; len(dn)=2,               type=6, cls=1, ttl=90000, rdlength=54
RR.fromData: offset=0x27; dn=akamaiedge.net.; len(dn)=2,               type=6, cls=1, ttl=90000, rdlength=54
RR.fromData: offset=0x27; dn=akamaiedge.net.; len(dn)=2,               type=6, cls=1, ttl=90000, rdlength=54
RR.fromData: offset=0x27; dn=akamaiedge.net.; len(dn)=2,               type=6, cls=1, ttl=90000, rdlength=54
RR.fromData: offset=0x27; dn=akamaiedge.net.; len(dn)=2,               type=6, cls=1, ttl=90000, rdlength=54
RR.fromData: offset=0x27; dn=akamaiedge.net.; len(dn)=2,               type=6, cls=1, ttl=90000, rdlength=54
RR.fromData: offset=0x27; dn=akamaiedge.net.; len(dn)=2,               type=6, cls=1, ttl=90000, rdlength=54
RR.fromData: offset=0x27; dn=akamaiedge.net.; len(dn)=2,               type=6, cls=1, ttl=90000, rdlength=54
RR.fromData: offset=0x27; dn=akamaiedge.net.; len(dn)=2,               type=6, cls=1, ttl=90000, rdlength=54
RR.fromData: offset=0x27; dn=akamaiedge.net.; len(dn)=2,               type=6, cls=1, ttl=90000, rdlength=54
our reply in full:
0000   16 FD 81 80 00 01 00 04 00 09 00 08 03 77 77 77    .............www
0010   09 6D 69 63 72 6F 73 6F 66 74 03 63 6F 6D 00 00    .microsoft.com..
0020   01 00 01 03 77 77 77 09 6D 69 63 72 6F 73 6F 66    ....www.microsof
0030   74 03 63 6F 6D 00 00 05 00 01 00 00 0E 10 00 23    t.com..........#
0040   03 77 77 77 09 6D 69 63 72 6F 73 6F 66 74 07 63    .www.microsoft.c
0050   6F 6D 2D 63 2D 32 07 65 64 67 65 6B 65 79 03 6E    om-c-2.edgekey.n
0060   65 74 00 03 77 77 77 09 6D 69 63 72 6F 73 6F 66    et..www.microsof
0070   74 07 63 6F 6D 2D 63 2D 32 07 65 64 67 65 6B 65    t.com-c-2.edgeke
0080   79 03 6E 65 74 00 00 05 00 01 00 00 54 60 00 3A    y.net.......T`.:
0090   03 77 77 77 09 6D 69 63 72 6F 73 6F 66 74 07 63    .www.microsoft.c
00A0   6F 6D 2D 63 2D 32 07 65 64 67 65 6B 65 79 03 6E    om-c-2.edgekey.n
00B0   65 74 0B 67 6C 6F 62 61 6C 72 65 64 69 72 06 61    et.globalredir.a
00C0   6B 61 64 6E 73 03 6E 65 74 00 03 77 77 77 09 6D    kadns.net..www.m
00D0   69 63 72 6F 73 6F 66 74 07 63 6F 6D 2D 63 2D 32    icrosoft.com-c-2
00E0   07 65 64 67 65 6B 65 79 03 6E 65 74 0B 67 6C 6F    .edgekey.net.glo
00F0   62 61 6C 72 65 64 69 72 06 61 6B 61 64 6E 73 03    balredir.akadns.
0100   6E 65 74 00 00 05 00 01 00 00 03 84 00 1B 05 65    net............e
0110   31 38 36 33 04 64 73 70 62 0A 61 6B 61 6D 61 69    1863.dspb.akamai
0120   65 64 67 65 03 6E 65 74 00 05 65 31 38 36 33 04    edge.net..e1863.
0130   64 73 70 62 0A 61 6B 61 6D 61 69 65 64 67 65 03    dspb.akamaiedge.
0140   6E 65 74 00 00 01 00 01 00 00 00 14 00 04 17 D4    net.............
0150   E8 5C 04 64 73 70 62 0A 61 6B 61 6D 61 69 65 64    ...dspb.akamaied
0160   67 65 03 6E 65 74 00 00 02 00 01 00 00 17 70 00    ge.net........p.
0170   17 06 61 30 64 73 70 62 0A 61 6B 61 6D 61 69 65    ..a0dspb.akamaie
0180   64 67 65 03 6E 65 74 00 04 64 73 70 62 0A 61 6B    dge.net..dspb.ak
0190   61 6D 61 69 65 64 67 65 03 6E 65 74 00 00 02 00    amaiedge.net....
01A0   01 00 00 1F 40 00 17 06 6E 34 64 73 70 62 0A 61    ....@...n4dspb.a
01B0   6B 61 6D 61 69 65 64 67 65 03 6E 65 74 00 04 64    kamaiedge.net..d
01C0   73 70 62 0A 61 6B 61 6D 61 69 65 64 67 65 03 6E    spb.akamaiedge.n
01D0   65 74 00 00 02 00 01 00 00 17 70 00 17 06 6E 33    et........p...n3
01E0   64 73 70 62 0A 61 6B 61 6D 61 69 65 64 67 65 03    dspb.akamaiedge.
01F0   6E 65 74 00 04 64 73 70 62 0A 61 6B 61 6D 61 69    net..dspb.akamai
0200   65 64 67 65 03 6E 65 74 00 00 02 00 01 00 00 0F    edge.net........
0210   A0 00 17 06 6E 35 64 73 70 62 0A 61 6B 61 6D 61    ....n5dspb.akama
0220   69 65 64 67 65 03 6E 65 74 00 04 64 73 70 62 0A    iedge.net..dspb.
0230   61 6B 61 6D 61 69 65 64 67 65 03 6E 65 74 00 00    akamaiedge.net..
0240   02 00 01 00 00 1F 40 00 17 06 6E 31 64 73 70 62    ......@...n1dspb
0250   0A 61 6B 61 6D 61 69 65 64 67 65 03 6E 65 74 00    .akamaiedge.net.
0260   04 64 73 70 62 0A 61 6B 61 6D 61 69 65 64 67 65    .dspb.akamaiedge
0270   03 6E 65 74 00 00 02 00 01 00 00 0F A0 00 17 06    .net............
0280   6E 32 64 73 70 62 0A 61 6B 61 6D 61 69 65 64 67    n2dspb.akamaiedg
0290   65 03 6E 65 74 00 04 64 73 70 62 0A 61 6B 61 6D    e.net..dspb.akam
02A0   61 69 65 64 67 65 03 6E 65 74 00 00 02 00 01 00    aiedge.net......
02B0   00 1F 40 00 17 06 6E 37 64 73 70 62 0A 61 6B 61    ..@...n7dspb.aka
02C0   6D 61 69 65 64 67 65 03 6E 65 74 00 04 64 73 70    maiedge.net..dsp
02D0   62 0A 61 6B 61 6D 61 69 65 64 67 65 03 6E 65 74    b.akamaiedge.net
02E0   00 00 02 00 01 00 00 0F A0 00 17 06 6E 30 64 73    ............n0ds
02F0   70 62 0A 61 6B 61 6D 61 69 65 64 67 65 03 6E 65    pb.akamaiedge.ne
0300   74 00 04 64 73 70 62 0A 61 6B 61 6D 61 69 65 64    t..dspb.akamaied
0310   67 65 03 6E 65 74 00 00 02 00 01 00 00 17 70 00    ge.net........p.
0320   17 06 6E 36 64 73 70 62 0A 61 6B 61 6D 61 69 65    ..n6dspb.akamaie
0330   64 67 65 03 6E 65 74 00 06 6E 34 64 73 70 62 0A    dge.net..n4dspb.
0340   61 6B 61 6D 61 69 65 64 67 65 03 6E 65 74 00 00    akamaiedge.net..
0350   01 00 01 00 00 1F 40 00 04 17 D1 49 5F 06 6E 33    ......@....I_.n3
0360   64 73 70 62 0A 61 6B 61 6D 61 69 65 64 67 65 03    dspb.akamaiedge.
0370   6E 65 74 00 00 01 00 01 00 00 17 70 00 04 17 D1    net........p....
0380   49 5E 06 6E 35 64 73 70 62 0A 61 6B 61 6D 61 69    I^.n5dspb.akamai
0390   65 64 67 65 03 6E 65 74 00 00 01 00 01 00 00 0F    edge.net........
03A0   A0 00 04 17 D1 49 7F 06 6E 31 64 73 70 62 0A 61    .....I..n1dspb.a
03B0   6B 61 6D 61 69 65 64 67 65 03 6E 65 74 00 00 01    kamaiedge.net...
03C0   00 01 00 00 1F 40 00 04 17 D1 49 5C 06 6E 32 64    .....@....I..n2d
03D0   73 70 62 0A 61 6B 61 6D 61 69 65 64 67 65 03 6E    spb.akamaiedge.n
03E0   65 74 00 00 01 00 01 00 00 0F A0 00 04 17 D1 49    et.............I
03F0   5D 06 6E 37 64 73 70 62 0A 61 6B 61 6D 61 69 65    ].n7dspb.akamaie
0400   64 67 65 03 6E 65 74 00 00 01 00 01 00 00 1F 40    dge.net........@
0410   00 04 C3 0A 08 F7 06 6E 30 64 73 70 62 0A 61 6B    .......n0dspb.ak
0420   61 6D 61 69 65 64 67 65 03 6E 65 74 00 00 01 00    amaiedge.net....
0430   01 00 00 0F A0 00 04 58 DD 51 C0 06 6E 36 64 73    .......X.Q..n6ds
0440   70 62 0A 61 6B 61 6D 61 69 65 64 67 65 03 6E 65    pb.akamaiedge.ne
0450   74 00 00 01 00 01 00 00 17 70 00 04 2E 21 4D 04    t........p...!M.

RR.fromData: offset=0x27; dn=akamaiedge.net.; len(dn)=2,               type=6, cls=1, ttl=90000, rdlength=54
RR.fromData: offset=0x27; dn=akamaiedge.net.; len(dn)=2,               type=6, cls=1, ttl=90000, rdlength=54
RR.fromData: offset=0x27; dn=akamaiedge.net.; len(dn)=2,               type=6, cls=1, ttl=90000, rdlength=54
RR.fromData: offset=0x27; dn=akamaiedge.net.; len(dn)=2,               type=6, cls=1, ttl=90000, rdlength=54
RR.fromData: offset=0x27; dn=akamaiedge.net.; len(dn)=2,               type=6, cls=1, ttl=90000, rdlength=54
RR.fromData: offset=0x27; dn=akamaiedge.net.; len(dn)=2,               type=6, cls=1, ttl=90000, rdlength=54
RR.fromData: offset=0x27; dn=akamaiedge.net.; len(dn)=2,               type=6, cls=1, ttl=90000, rdlength=54
RR.fromData: offset=0x27; dn=akamaiedge.net.; len(dn)=2,               type=6, cls=1, ttl=90000, rdlength=54
RR.fromData: offset=0x27; dn=akamaiedge.net.; len(dn)=2,               type=6, cls=1, ttl=90000, rdlength=54
RR.fromData: offset=0x27; dn=akamaiedge.net.; len(dn)=2,               type=6, cls=1, ttl=90000, rdlength=54
RR.fromData: offset=0x27; dn=akamaiedge.net.; len(dn)=2,               type=2, cls=1, ttl=172800, rdlength=6
RR.fromData: offset=0x39; dn=akamaiedge.net.; len(dn)=2,               type=2, cls=1, ttl=172800, rdlength=6
RR.fromData: offset=0x4b; dn=akamaiedge.net.; len(dn)=2,               type=2, cls=1, ttl=172800, rdlength=7
RR.fromData: offset=0x5e; dn=akamaiedge.net.; len(dn)=2,               type=2, cls=1, ttl=172800, rdlength=10
RR.fromData: offset=0x74; dn=akamaiedge.net.; len(dn)=2,               type=2, cls=1, ttl=172800, rdlength=10
RR.fromData: offset=0x8a; dn=akamaiedge.net.; len(dn)=2,               type=2, cls=1, ttl=172800, rdlength=10
RR.fromData: offset=0xa0; dn=akamaiedge.net.; len(dn)=2,               type=2, cls=1, ttl=172800, rdlength=10
RR.fromData: offset=0xb6; dn=akamaiedge.net.; len(dn)=2,               type=2, cls=1, ttl=172800, rdlength=10
RR.fromData: offset=0xcc; dn=akamaiedge.net.; len(dn)=2,               type=2, cls=1, ttl=172800, rdlength=10
RR.fromData: offset=0xe2; dn=akamaiedge.net.; len(dn)=2,               type=2, cls=1, ttl=172800, rdlength=9
RR.fromData: offset=0xf7; dn=akamaiedge.net.; len(dn)=2,               type=2, cls=1, ttl=172800, rdlength=9
RR.fromData: offset=0x10c; dn=akamaiedge.net.; len(dn)=2,               type=2, cls=1, ttl=172800, rdlength=10
RR.fromData: offset=0x122; dn=akamaiedge.net.; len(dn)=2,               type=2, cls=1, ttl=172800, rdlength=10
RR.fromData: offset=0x138; dn=la1.akamaiedge.net.; len(dn)=2,               type=1, cls=1, ttl=172800, rdlength=4
RR.fromData: offset=0x148; dn=la3.akamaiedge.net.; len(dn)=2,               type=1, cls=1, ttl=172800, rdlength=4
RR.fromData: offset=0x158; dn=lar2.akamaiedge.net.; len(dn)=2,               type=1, cls=1, ttl=172800, rdlength=4
RR.fromData: offset=0x168; dn=ns3-194.akamaiedge.net.; len(dn)=2,               type=1, cls=1, ttl=172800, rdlength=4
RR.fromData: offset=0x178; dn=ns3-194.akamaiedge.net.; len(dn)=2,               type=28, cls=1, ttl=172800, rdlength=16
RR.fromData: offset=0x194; dn=ns6-194.akamaiedge.net.; len(dn)=2,               type=1, cls=1, ttl=172800, rdlength=4
RR.fromData: offset=0x1a4; dn=ns7-194.akamaiedge.net.; len(dn)=2,               type=1, cls=1, ttl=172800, rdlength=4
RR.fromData: offset=0x1b4; dn=ns5-194.akamaiedge.net.; len(dn)=2,               type=1, cls=1, ttl=172800, rdlength=4
RR.fromData: offset=0x1c4; dn=a12-192.akamaiedge.net.; len(dn)=2,               type=1, cls=1, ttl=172800, rdlength=4
RR.fromData: offset=0x1d4; dn=a28-192.akamaiedge.net.; len(dn)=2,               type=1, cls=1, ttl=172800, rdlength=4
RR.fromData: offset=0x1e4; dn=a6-192.akamaiedge.net.; len(dn)=2,               type=1, cls=1, ttl=172800, rdlength=4
RR.fromData: offset=0x27; dn=akamaiedge.net.; len(dn)=2,               type=6, cls=1, ttl=90000, rdlength=54
RR.fromData: offset=0x27; dn=akamaiedge.net.; len(dn)=2,               type=6, cls=1, ttl=90000, rdlength=54
RR.fromData: offset=0x27; dn=akamaiedge.net.; len(dn)=2,               type=6, cls=1, ttl=90000, rdlength=54
RR.fromData: offset=0x27; dn=akamaiedge.net.; len(dn)=2,               type=6, cls=1, ttl=90000, rdlength=54
RR.fromData: offset=0x27; dn=akamaiedge.net.; len(dn)=2,               type=6, cls=1, ttl=90000, rdlength=54
RR.fromData: offset=0x27; dn=akamaiedge.net.; len(dn)=2,               type=6, cls=1, ttl=90000, rdlength=54
RR.fromData: offset=0x27; dn=akamaiedge.net.; len(dn)=2,               type=6, cls=1, ttl=90000, rdlength=54
RR.fromData: offset=0x27; dn=akamaiedge.net.; len(dn)=2,               type=6, cls=1, ttl=90000, rdlength=54
RR.fromData: offset=0x27; dn=akamaiedge.net.; len(dn)=2,               type=6, cls=1, ttl=90000, rdlength=54
RR.fromData: offset=0x27; dn=akamaiedge.net.; len(dn)=2,               type=6, cls=1, ttl=90000, rdlength=54
RR.fromData: offset=0x27; dn=akamaiedge.net.; len(dn)=2,               type=6, cls=1, ttl=90000, rdlength=54
RR.fromData: offset=0x27; dn=akamaiedge.net.; len(dn)=2,               type=6, cls=1, ttl=90000, rdlength=54
RR.fromData: offset=0x27; dn=akamaiedge.net.; len(dn)=2,               type=6, cls=1, ttl=90000, rdlength=54
RR.fromData: offset=0x27; dn=akamaiedge.net.; len(dn)=2,               type=6, cls=1, ttl=90000, rdlength=54
RR.fromData: offset=0x27; dn=akamaiedge.net.; len(dn)=2,               type=6, cls=1, ttl=90000, rdlength=54
our reply in full:
0000   71 83 81 80 00 01 00 04 00 09 00 08 03 77 77 77    q............www
0010   09 6D 69 63 72 6F 73 6F 66 74 03 63 6F 6D 00 00    .microsoft.com..
0020   01 00 01 03 77 77 77 09 6D 69 63 72 6F 73 6F 66    ....www.microsof
0030   74 03 63 6F 6D 00 00 05 00 01 00 00 0E 10 00 23    t.com..........#
0040   03 77 77 77 09 6D 69 63 72 6F 73 6F 66 74 07 63    .www.microsoft.c
0050   6F 6D 2D 63 2D 32 07 65 64 67 65 6B 65 79 03 6E    om-c-2.edgekey.n
0060   65 74 00 03 77 77 77 09 6D 69 63 72 6F 73 6F 66    et..www.microsof
0070   74 07 63 6F 6D 2D 63 2D 32 07 65 64 67 65 6B 65    t.com-c-2.edgeke
0080   79 03 6E 65 74 00 00 05 00 01 00 00 54 60 00 3A    y.net.......T`.:
0090   03 77 77 77 09 6D 69 63 72 6F 73 6F 66 74 07 63    .www.microsoft.c
00A0   6F 6D 2D 63 2D 32 07 65 64 67 65 6B 65 79 03 6E    om-c-2.edgekey.n
00B0   65 74 0B 67 6C 6F 62 61 6C 72 65 64 69 72 06 61    et.globalredir.a
00C0   6B 61 64 6E 73 03 6E 65 74 00 03 77 77 77 09 6D    kadns.net..www.m
00D0   69 63 72 6F 73 6F 66 74 07 63 6F 6D 2D 63 2D 32    icrosoft.com-c-2
00E0   07 65 64 67 65 6B 65 79 03 6E 65 74 0B 67 6C 6F    .edgekey.net.glo
00F0   62 61 6C 72 65 64 69 72 06 61 6B 61 64 6E 73 03    balredir.akadns.
0100   6E 65 74 00 00 05 00 01 00 00 03 84 00 1B 05 65    net............e
0110   31 38 36 33 04 64 73 70 62 0A 61 6B 61 6D 61 69    1863.dspb.akamai
0120   65 64 67 65 03 6E 65 74 00 05 65 31 38 36 33 04    edge.net..e1863.
0130   64 73 70 62 0A 61 6B 61 6D 61 69 65 64 67 65 03    dspb.akamaiedge.
0140   6E 65 74 00 00 01 00 01 00 00 00 14 00 04 17 D4    net.............
0150   E8 5C 04 64 73 70 62 0A 61 6B 61 6D 61 69 65 64    ...dspb.akamaied
0160   67 65 03 6E 65 74 00 00 02 00 01 00 00 17 70 00    ge.net........p.
0170   17 06 61 30 64 73 70 62 0A 61 6B 61 6D 61 69 65    ..a0dspb.akamaie
0180   64 67 65 03 6E 65 74 00 04 64 73 70 62 0A 61 6B    dge.net..dspb.ak
0190   61 6D 61 69 65 64 67 65 03 6E 65 74 00 00 02 00    amaiedge.net....
01A0   01 00 00 1F 40 00 17 06 6E 34 64 73 70 62 0A 61    ....@...n4dspb.a
01B0   6B 61 6D 61 69 65 64 67 65 03 6E 65 74 00 04 64    kamaiedge.net..d
01C0   73 70 62 0A 61 6B 61 6D 61 69 65 64 67 65 03 6E    spb.akamaiedge.n
01D0   65 74 00 00 02 00 01 00 00 17 70 00 17 06 6E 33    et........p...n3
01E0   64 73 70 62 0A 61 6B 61 6D 61 69 65 64 67 65 03    dspb.akamaiedge.
01F0   6E 65 74 00 04 64 73 70 62 0A 61 6B 61 6D 61 69    net..dspb.akamai
0200   65 64 67 65 03 6E 65 74 00 00 02 00 01 00 00 0F    edge.net........
0210   A0 00 17 06 6E 35 64 73 70 62 0A 61 6B 61 6D 61    ....n5dspb.akama
0220   69 65 64 67 65 03 6E 65 74 00 04 64 73 70 62 0A    iedge.net..dspb.
0230   61 6B 61 6D 61 69 65 64 67 65 03 6E 65 74 00 00    akamaiedge.net..
0240   02 00 01 00 00 1F 40 00 17 06 6E 31 64 73 70 62    ......@...n1dspb
0250   0A 61 6B 61 6D 61 69 65 64 67 65 03 6E 65 74 00    .akamaiedge.net.
0260   04 64 73 70 62 0A 61 6B 61 6D 61 69 65 64 67 65    .dspb.akamaiedge
0270   03 6E 65 74 00 00 02 00 01 00 00 0F A0 00 17 06    .net............
0280   6E 32 64 73 70 62 0A 61 6B 61 6D 61 69 65 64 67    n2dspb.akamaiedg
0290   65 03 6E 65 74 00 04 64 73 70 62 0A 61 6B 61 6D    e.net..dspb.akam
02A0   61 69 65 64 67 65 03 6E 65 74 00 00 02 00 01 00    aiedge.net......
02B0   00 1F 40 00 17 06 6E 37 64 73 70 62 0A 61 6B 61    ..@...n7dspb.aka
02C0   6D 61 69 65 64 67 65 03 6E 65 74 00 04 64 73 70    maiedge.net..dsp
02D0   62 0A 61 6B 61 6D 61 69 65 64 67 65 03 6E 65 74    b.akamaiedge.net
02E0   00 00 02 00 01 00 00 0F A0 00 17 06 6E 30 64 73    ............n0ds
02F0   70 62 0A 61 6B 61 6D 61 69 65 64 67 65 03 6E 65    pb.akamaiedge.ne
0300   74 00 04 64 73 70 62 0A 61 6B 61 6D 61 69 65 64    t..dspb.akamaied
0310   67 65 03 6E 65 74 00 00 02 00 01 00 00 17 70 00    ge.net........p.
0320   17 06 6E 36 64 73 70 62 0A 61 6B 61 6D 61 69 65    ..n6dspb.akamaie
0330   64 67 65 03 6E 65 74 00 06 6E 34 64 73 70 62 0A    dge.net..n4dspb.
0340   61 6B 61 6D 61 69 65 64 67 65 03 6E 65 74 00 00    akamaiedge.net..
0350   01 00 01 00 00 1F 40 00 04 17 D1 49 5F 06 6E 33    ......@....I_.n3
0360   64 73 70 62 0A 61 6B 61 6D 61 69 65 64 67 65 03    dspb.akamaiedge.
0370   6E 65 74 00 00 01 00 01 00 00 17 70 00 04 17 D1    net........p....
0380   49 5E 06 6E 35 64 73 70 62 0A 61 6B 61 6D 61 69    I^.n5dspb.akamai
0390   65 64 67 65 03 6E 65 74 00 00 01 00 01 00 00 0F    edge.net........
03A0   A0 00 04 17 D1 49 7F 06 6E 31 64 73 70 62 0A 61    .....I..n1dspb.a
03B0   6B 61 6D 61 69 65 64 67 65 03 6E 65 74 00 00 01    kamaiedge.net...
03C0   00 01 00 00 1F 40 00 04 17 D1 49 5C 06 6E 32 64    .....@....I..n2d
03D0   73 70 62 0A 61 6B 61 6D 61 69 65 64 67 65 03 6E    spb.akamaiedge.n
03E0   65 74 00 00 01 00 01 00 00 0F A0 00 04 17 D1 49    et.............I
03F0   5D 06 6E 37 64 73 70 62 0A 61 6B 61 6D 61 69 65    ].n7dspb.akamaie
0400   64 67 65 03 6E 65 74 00 00 01 00 01 00 00 1F 40    dge.net........@
0410   00 04 C3 0A 08 F7 06 6E 30 64 73 70 62 0A 61 6B    .......n0dspb.ak
0420   61 6D 61 69 65 64 67 65 03 6E 65 74 00 00 01 00    amaiedge.net....
0430   01 00 00 0F A0 00 04 58 DD 51 C0 06 6E 36 64 73    .......X.Q..n6ds
0440   70 62 0A 61 6B 61 6D 61 69 65 64 67 65 03 6E 65    pb.akamaiedge.ne
0450   74 00 00 01 00 01 00 00 17 70 00 04 2E 21 4D 04    t........p...!M.

